<svg xmlns="http://www.w3.org/2000/svg" xmlns:xlink="http://www.w3.org/1999/xlink" width="480" height="270" viewBox="0 0 480 270">
    <defs>
        <linearGradient id="a" x1="67.571%" x2="67.571%" y1="100%" y2="0%">
            <stop offset="0%" stop-color="#003E80"/>
            <stop offset="100%" stop-color="#006FE6"/>
        </linearGradient>
        <linearGradient id="b" x1="0%" y1="100%" y2="0%">
            <stop offset="0%" stop-color="#04A"/>
            <stop offset="35.378%" stop-color="#2053AF"/>
            <stop offset="67.544%" stop-color="#006FE6"/>
            <stop offset="100%" stop-color="#00CCE9"/>
            <stop offset="100%" stop-color="#00CCE9"/>
            <stop offset="100%" stop-color="#00CCE9"/>
        </linearGradient>
        <path id="c" d="M14.08 12.328c-.941 0-1.707.762-1.707 1.7v2.288l1.09-.543a.429.429 0 0 1 .19-.045h2.987c.941 0 1.707-.762 1.707-1.7s-.766-1.7-1.707-1.7h-2.56zm-2.133 5.1a.426.426 0 0 1-.427-.425v-2.975a2.558 2.558 0 0 1 2.56-2.55h2.56a2.558 2.558 0 0 1 2.56 2.55 2.558 2.558 0 0 1-2.56 2.55h-2.886l-1.617.806a.43.43 0 0 1-.19.045zm4.693-.424c.952 0 2.013-.582 2.56-1.276v2.976a.424.424 0 0 1-.427.425.427.427 0 0 1-.2-.05l-1.08-.8h-1.706c-.878 0-1.548-.395-1.68-1.275h2.533z"/>
        <path id="e" d="M0 40.171h122.88V0H0z"/>
        <linearGradient id="g" x1="50%" x2="50%" y1="0%" y2="100%">
            <stop offset="0%" stop-color="#FFF"/>
            <stop offset="100%" stop-color="#4DA3FF"/>
        </linearGradient>
        <linearGradient id="h" x1="153.366%" x2="9.22%" y1="100%" y2="0%">
            <stop offset="0%" stop-color="#001B8A"/>
            <stop offset="47.525%" stop-color="#003CC1"/>
            <stop offset="100%" stop-color="#2A90FF"/>
        </linearGradient>
        <linearGradient id="i" x1="4.561%" x2="83.221%" y1="47.147%" y2="47.147%">
            <stop offset="0%" stop-color="#003CC1"/>
            <stop offset="100%" stop-color="#001B8A"/>
        </linearGradient>
        <linearGradient id="j" x1="77.128%" x2="25.093%" y1="77.197%" y2="21.826%">
            <stop offset="0%" stop-color="#001B8A"/>
            <stop offset="51.795%" stop-color="#003CC1"/>
            <stop offset="100%" stop-color="#2A90FF"/>
        </linearGradient>
        <path id="k" d="M6.827 6.801H.853v-1.7h1.764c.155.53.641.921 1.223.921.582 0 1.068-.39 1.224-.92h1.763v1.7zM1.63.851h4.42l.683 3.4h-2.04a.426.426 0 0 0-.426.425c0 .012.006.023.007.035-.001.013-.007.023-.007.036a.427.427 0 0 1-.854 0c0-.013-.006-.023-.007-.036.001-.012.007-.023.007-.035a.426.426 0 0 0-.426-.425H.947L1.63.85zM7.67 4.592L6.818.342A.426.426 0 0 0 6.4 0H1.28a.426.426 0 0 0-.418.342l-.853 4.25A.392.392 0 0 0 0 4.677v2.55c0 .235.191.426.427.426h6.826c.236 0 .427-.19.427-.425V4.676a.392.392 0 0 0-.009-.083zM2.987 2.125h1.706a.426.426 0 1 0 0-.85H2.987a.426.426 0 1 0 0 .85m-.854 1.7c.236 0 .427-.19.427-.424h2.56a.426.426 0 0 0 .853 0v-.064a.789.789 0 0 0-.79-.786H2.497a.789.789 0 0 0-.79.786v.064c0 .234.192.425.427.425"/>
        <path id="l" d="M5.379 5.77a1.239 1.239 0 0 1-1.242-1.236c0-.683.556-1.236 1.242-1.236.685 0 1.24.553 1.24 1.236 0 .683-.555 1.237-1.24 1.237m-3.31 0A1.239 1.239 0 0 1 .827 4.534c0-.683.556-1.236 1.242-1.236.685 0 1.24.553 1.24 1.236 0 .683-.555 1.237-1.24 1.237m4.965-2.473H6.62v-.825a.823.823 0 0 0-.39-.696l.388-.579a.613.613 0 0 0 .83-.58A.62.62 0 0 0 6.826 0a.62.62 0 0 0-.62.618.61.61 0 0 0 .09.318l-.479.715-.026-.002H1.655l-.026.002-.478-.715a.61.61 0 0 0 .09-.318A.62.62 0 0 0 .621 0a.62.62 0 1 0 0 1.237.613.613 0 0 0 .208-.039l.387.58a.823.823 0 0 0-.389.695v.825H.414A.413.413 0 0 0 0 3.71v1.649c0 .227.185.412.414.412h.413v.824c0 .454.373.825.828.825h4.137a.828.828 0 0 0 .828-.825v-.824h.414a.413.413 0 0 0 .413-.412v-1.65a.413.413 0 0 0-.413-.411m-1.655.824a.413.413 0 1 1 0 .826.413.413 0 0 1 0-.826zm-3.31 0a.413.413 0 1 1 0 .826.413.413 0 0 1 0-.826z"/>
    </defs>
    <g fill="none" fill-rule="evenodd">
        <path fill="#E2E6E8" d="M0 263.982h480v-11.477H0z"/>
        <path fill="#F6F7F8" d="M22.08 263.982h435.84v-11.477H22.08z"/>
        <path fill="#C2C7C8" d="M463.43 269.721H16.57c-5.933 0-11.712-1.99-16.496-5.681L0 263.982h480l-.074.058c-4.784 3.69-10.563 5.681-16.495 5.681"/>
        <path fill="url(#a)" d="M361.144 0H11.336C5.076 0 0 5.023 0 11.218v241.287h372.48V11.218C372.48 5.023 367.405 0 361.144 0" transform="translate(53.76)"/>
        <path fill="#EDF1F2" d="M67.2 244.853h345.6V13.39H67.2z"/>
        <path fill="#003E80" d="M67.2 28.694h345.6V13.39H67.2z"/>
        <path fill="#FC6627" d="M92.16 21.042c0 1.056-.86 1.913-1.92 1.913s-1.92-.857-1.92-1.913.86-1.913 1.92-1.913 1.92.857 1.92 1.913"/>
        <path fill="#006FE6" d="M84.48 21.042c0 1.056-.86 1.913-1.92 1.913s-1.92-.857-1.92-1.913.86-1.913 1.92-1.913 1.92.857 1.92 1.913"/>
        <path fill="#EDF1F2" d="M76.8 21.042c0 1.056-.86 1.913-1.92 1.913s-1.92-.857-1.92-1.913.86-1.913 1.92-1.913 1.92.857 1.92 1.913"/>
        <path fill="url(#b)" d="M67.2 28.694h345.6v68.865H67.2z"/>
        <g transform="translate(190.08 66.952)">
            <rect width="99.84" height="61.213" fill="#FFF" rx="2"/>
            <circle cx="15.36" cy="13.213" r="8" fill="#E2E6E8"/>
            <rect width="38.4" height="3.826" x="30.72" y="13.39" fill="#E2E6E8" fill-rule="nonzero" rx="1.913"/>
            <rect width="84.48" height="3.826" x="7.68" y="30.607" fill="#E2E6E8" fill-rule="nonzero" rx="1.913"/>
            <rect width="84.48" height="3.826" x="7.68" y="38.258" fill="#E2E6E8" fill-rule="nonzero" rx="1.913"/>
            <rect width="61.44" height="3.826" x="7.68" y="45.91" fill="#E2E6E8" fill-rule="nonzero" rx="1.913"/>
        </g>
        <g transform="translate(295.68 66.952)">
            <path fill="#2B2F33" d="M4.88 2.87h95.84a2 2 0 0 1 2 2v57.213a2 2 0 0 1-2 2H4.88a2 2 0 0 1-2-2V4.869a2 2 0 0 1 2-2z" opacity=".247"/>
            <path fill="#FFF" d="M2 0h95.84a2 2 0 0 1 2 2v57.213a2 2 0 0 1-2 2H2a2 2 0 0 1-2-2V2a2 2 0 0 1 2-2z"/>
            <path fill="#FFF" stroke="#E2E6E8" stroke-width=".5" d="M43.24 42.79H90.2c.69 0 1.25.56 1.25 1.25v5.652c0 .69-.56 1.25-1.25 1.25H43.24c-.69 0-1.25-.56-1.25-1.25v-5.651c0-.69.56-1.25 1.25-1.25z"/>
            <path fill="#F6F7F8" stroke="#E2E6E8" stroke-width=".5" d="M10.6 42.79h31.89v8.152H10.6c-.69 0-1.25-.56-1.25-1.25v-5.651c0-.69.56-1.25 1.25-1.25z"/>
            <path fill="#FFF" stroke="#E2E6E8" stroke-width=".5" d="M43.24 32.27H90.2c.69 0 1.25.56 1.25 1.25v5.651c0 .69-.56 1.25-1.25 1.25H43.24c-.69 0-1.25-.56-1.25-1.25V33.52c0-.69.56-1.25 1.25-1.25z"/>
            <path fill="#F6F7F8" stroke="#E2E6E8" stroke-width=".5" d="M10.6 32.27h31.89v8.151H10.6c-.69 0-1.25-.56-1.25-1.25V33.52c0-.69.56-1.25 1.25-1.25z"/>
            <circle cx="15.36" cy="15.303" r="8" fill="#E2E6E8"/>
            <rect width="38.4" height="3.826" x="32.64" y="13.39" fill="#E2E6E8" fill-rule="nonzero" rx="1.913"/>
            <mask id="d" fill="#fff">
                <use xlink:href="#c"/>
            </mask>
            <use fill="#676B6D" xlink:href="#c"/>
            <rect width="38.4" height="3.826" x="30.72" y="13.39" fill="#E2E6E8" fill-rule="nonzero" mask="url(#d)" rx="1.913"/>
        </g>
        <g transform="translate(82.56 143.469)">
            <rect width="99.84" height="61.213" fill="#FFF" rx="2"/>
            <circle cx="15.36" cy="13.213" r="8" fill="#E2E6E8"/>
            <rect width="38.4" height="3.826" x="30.72" y="13.39" fill="#E2E6E8" fill-rule="nonzero" rx="1.913"/>
            <rect width="84.48" height="3.826" x="7.68" y="30.607" fill="#E2E6E8" fill-rule="nonzero" rx="1.913"/>
            <rect width="38.4" height="3.826" x="7.68" y="38.258" fill="#E2E6E8" fill-rule="nonzero" rx="1.913"/>
        </g>
        <g transform="translate(67.2 204.682)">
            <mask id="f" fill="#fff">
                <use xlink:href="#e"/>
            </mask>
            <g mask="url(#f)">
                <g transform="translate(15.36 7.652)">
                    <rect width="99.84" height="61.213" fill="#FFF" rx="2"/>
                    <circle cx="15.36" cy="13.213" r="8" fill="#E2E6E8"/>
                    <rect width="38.4" height="3.826" x="30.72" y="13.39" fill="#E2E6E8" fill-rule="nonzero" rx="1.913"/>
                    <rect width="84.48" height="3.826" x="7.68" y="30.607" fill="#E2E6E8" fill-rule="nonzero" rx="1.913"/>
                    <rect width="38.4" height="3.826" x="7.68" y="38.258" fill="#E2E6E8" fill-rule="nonzero" rx="1.913"/>
                </g>
            </g>
        </g>
        <g>
            <path fill="#2B2F33" d="M461.677 104.753a.488.488 0 0 1-.148-.954c4.182-1.31 6.485-3.495 6.846-6.496.753-6.274-7.064-15.118-14.74-19.715a.487.487 0 0 1-.167-.67.494.494 0 0 1 .676-.167c7.936 4.755 16.008 14.007 15.207 20.668-.41 3.417-2.943 5.877-7.526 7.31a.49.49 0 0 1-.148.024"/>
            <path fill="#FFB7AA" d="M466.874 142.032l-35.083 9.23c5.82 6.28 1.926 30.02 4.917 37.13 0 0-1.682 2.378-3.035 2.525-1.255.136-5.336.272-4.365-1.94 2.588-5.897-7.703-40.511-7.703-40.511a4.446 4.446 0 0 1 2.193-4.895l.82-.451 34.912-19.212c4.789-2.635 9.939-1.932 12.592 2.823 2.654 4.755 1.807 11.761-2.982 14.396-.716.395-1.51.702-2.266.905"/>
            <path fill="#2B2F33" d="M444.442 66.168c6.366-.265 7.597 9.361 12.597 13.486 7.097 5.853 17.133 18.586 1.473 25.118-8.933-4.313-8.81-26.667-8.81-26.667l-8.73-6.95 3.47-4.987z"/>
            <path fill="#FFB7AA" d="M473.98 134.127c-.51 1.54-.976 3.086-1.434 4.633-.462 1.546-.884 3.097-1.328 4.645l-1.245 4.655c-.5 1.92-.908 3.647-1.179 4.663-.392 1.554-.778 3.11-1.14 4.667-.375 1.556-.724 3.116-1.081 4.674-.707 3.118-1.96 6.612-2.402 8.705 5.984 16.718-5.6 31.28-6.415 41.709 0 0-2.13 1.348-3.78.718-1.649-.629-3.601-.124-2.968-1.761.015-.037 1.159-2.414 1.174-2.45l.07-.16.428-.984.384-1.04c.228-.717.445-1.444.636-2.193.195-.748.36-1.508.505-2.282.156-.768.28-1.553.411-2.333.114-.788.215-1.577.302-2.374.096-.793.166-1.595.243-2.394.147-1.601.207-3.218.276-4.835.065-1.617.093-3.24.082-4.865.003-1.624-.046-3.252-.101-4.878a175.633 175.633 0 0 0-.258-4.877l-.19-2.43c-.07-.8-.143-1.63-.225-2.381l.033-.687c.106-3.189.196-6.38.248-9.575.022-1.598.052-3.196.056-4.796.017-1.599.01-3.2-.002-4.802-.016-1.603-.005-3.203-.042-4.808l-.107-4.815c-.065-1.609-.108-3.214-.19-4.825-.08-1.61-.166-3.221-.297-4.837-.443-5.486 3.676-10.29 9.2-10.73 5.524-.44 10.362 3.65 10.805 9.135a10.12 10.12 0 0 1-.47 3.908"/>
            <path fill="#E2E6E8" d="M459.046 217.098s-.179 2.183-.52 2.376c-1.156.654-8.646.563-9.48.759-1.59.374-10.087.149-10.872-.842-.784-.99-.126-2.325-.126-2.325l20.998.032z"/>
            <path fill="#FFF" d="M458.917 217.308c.515-.191-.11-4.748-.514-5.154-.405-.407-3.106 1.512-4.827.693-1.72-.818-2.63-2.382-3.017-2.484-.387-.102-5.351 4.846-5.351 4.846s-7.727 1.47-7.1 1.898c4.02 2.746 18.743.964 20.809.2"/>
            <path fill="#E2E6E8" d="M450.684 213.795a.495.495 0 0 1-.33-.126l-1.841-1.657a.486.486 0 0 1-.034-.69.494.494 0 0 1 .695-.034l1.84 1.656a.487.487 0 0 1-.33.851M448.751 215.655a.494.494 0 0 1-.33-.126l-1.841-1.657a.486.486 0 0 1-.034-.69.495.495 0 0 1 .695-.034l1.84 1.657a.487.487 0 0 1-.33.85M437.67 191.787s-.179 2.184-.52 2.377c-1.156.654-8.647.562-9.48.758-1.59.374-10.087.15-10.872-.84-.784-.992-.126-2.326-.126-2.326l20.998.031z"/>
            <path fill="#FFF" d="M437.54 191.997c.516-.19-.108-4.747-.513-5.153-.405-.407-3.106 1.511-4.827.692-1.72-.818-2.63-2.381-3.017-2.483-.387-.102-5.351 4.845-5.351 4.845s-7.727 1.47-7.1 1.898c4.02 2.746 18.743.964 20.809.201"/>
            <path fill="#E2E6E8" d="M429.308 188.485a.494.494 0 0 1-.33-.127l-1.84-1.657a.487.487 0 0 1-.035-.69.496.496 0 0 1 .695-.034l1.84 1.657a.487.487 0 0 1-.33.85M427.375 190.345a.494.494 0 0 1-.33-.127l-1.841-1.657a.486.486 0 0 1-.034-.69.496.496 0 0 1 .695-.033l1.84 1.657a.487.487 0 0 1-.33.85"/>
            <path fill="#2B2F33" d="M444.442 66.168s-1.613-2.151-4.51-1.546c-2.896.604-21.299 6.232-22.27 14.591-1.148 9.873 6.977 12.652 13.44 5.922 1.767-1.842 13.34-18.967 13.34-18.967"/>
            <path fill="#2B2F33" d="M431.101 85.135c.268-.28.764-.914 1.408-1.782l-4.575-4.08c-3.439.815-9.502 7.242-1.4 9.012 1.522-.573 3.088-1.61 4.567-3.15"/>
            <path fill="#2B2F33" d="M430.87 85.365c.633 7.89-8.097 10.108-8.097 16.132 0 11.884 13.198 11.152 11.787 16.15-1.064 3.77-3.979 11.994 3.05 14.213 9.247 2.917 15.248-18.398 15.248-18.398l-5.246-20.757-16.742-7.34z"/>
            <path fill="#FFB7AA" d="M452.46 106.41L431.1 119.576l-.29.18a3.166 3.166 0 0 1-1.633.465l-28.676.119a2.454 2.454 0 0 1-2.473-2.435c-.005-1.276.986-2.328 2.241-2.444l28.561-2.558-1.923.645 19.96-15.174a4.947 4.947 0 0 1 6.904.91 4.867 4.867 0 0 1-1.313 7.128"/>
            <path fill="#003E80" d="M452.46 106.41L431.1 119.576l-.29.18a3.166 3.166 0 0 1-1.633.465l-5.667.024-.496-6.82 4.598-.413 19.256-14.638a4.947 4.947 0 0 1 6.903.91 4.867 4.867 0 0 1-1.313 7.128"/>
            <path fill="#FFB7AA" d="M446.343 83.42c.408 1.776 5.695 8.37 5.695 8.37l-4.83 7.59s-.258-6.042-3.777-7.896c-3.52-1.855 2.912-8.064 2.912-8.064"/>
            <path fill="#FF9491" d="M446.756 84.707l-4.281 4.353c-.242 1-.054 1.892.956 2.424 1.204.635 2.027 1.76 2.588 2.967 1.15-2.681.627-8.034.737-9.744"/>
            <path fill="#FFB7AA" d="M428.78 76.614c-3.082 5.24 3.188 9.379 3.952 10.846 1.217 2.339-.629 3.994-.629 3.994.646 1.39 1.674.815 2.065 1.162s.064 1.392.064 1.392.414.393 1.271.354c-.147.2-.122.717.026.806.15.089 1.464.014 1.646.269.236.33 1.149 1.467 2.093.87 1.113-.704 6.128-6.33 7.075-12.887 1.444-9.994-9.918-19.808-17.563-6.806"/>
            <path fill="#FFB7AA" d="M447.115 77.966a3.134 3.134 0 0 1-.97 4.346 3.183 3.183 0 0 1-4.376-.963 3.134 3.134 0 0 1 .97-4.346 3.182 3.182 0 0 1 4.376.963"/>
            <path fill="#FF9491" d="M445.905 78.732a1.715 1.715 0 0 1-.53 2.378 1.742 1.742 0 0 1-2.396-.527 1.715 1.715 0 0 1 .531-2.378 1.741 1.741 0 0 1 2.395.527"/>
            <path fill="#2B2F33" d="M444.335 66.815a.491.491 0 0 1-.474-.362c-.346-1.272-.262-3.1 2.093-4.584a.494.494 0 0 1 .68.15.487.487 0 0 1-.152.675c-1.507.95-2.054 2.096-1.672 3.506a.488.488 0 0 1-.475.615"/>
            <path fill="#2B2F33" d="M444.578 67.003a.489.489 0 0 1-.391-.785c.046-.06 1.153-1.483 2.964-2.161a.494.494 0 0 1 .634.285.487.487 0 0 1-.287.63c-1.55.579-2.519 1.826-2.528 1.838a.492.492 0 0 1-.392.193M436.73 117.05a.502.502 0 0 1-.168-.03c-7.929-2.832-14.095-5.37-15.37-10.023-1.597-5.828 1.822-9.198 5.129-12.457 1.311-1.293 2.667-2.63 3.669-4.096a.494.494 0 0 1 .683-.13.486.486 0 0 1 .13.679c-1.054 1.544-2.444 2.914-3.79 4.24-3.25 3.203-6.318 6.23-4.873 11.508 1.151 4.199 7.1 6.625 14.756 9.36a.488.488 0 0 1-.167.949"/>
            <path fill="#2053AF" d="M447.208 99.38c-.74 2.36-8.819 7.55-9.393 10.908-.7 4.093 12.994 23.81 24.183 28.45 11.19 4.64 3.444-17.583 3.444-17.583s-5.657-1.465-6.518-4.03c-.86-2.564 1.893-14.952-4.131-20.647-2.234-2.113-3.077-3.618-3.254-4.677-.3-1.797-4.33 7.58-4.33 7.58"/>
            <path fill="#FF9491" d="M431.85 72.71c-1.06.962-2.096 2.246-3.07 3.904-.912 1.55-1.001 3.003-.661 4.32 4.524-1.66 8.632-1.418 10.352-7.236.859-2.901-3.404-1.781-6.62-.989"/>
            <path fill="#2B2F33" d="M446.177 70.374l-11.272-1.194-6.972 3.989v6.105c1.48-.977 7.915-.977 9.268-4.518 0 3.874 3.825 5.55 8.261 7.67-1.127 6.396 2.11 13.657 9.097 8.386l2.48-8.007-10.862-12.43z"/>
            <path fill="#FFB7AA" d="M445.895 80.933a2.838 2.838 0 0 0-2.848-2.828 2.838 2.838 0 0 0-2.848 2.828 2.838 2.838 0 0 0 2.848 2.827 2.838 2.838 0 0 0 2.848-2.827"/>
            <path fill="#2B2F33" d="M466.874 142.032l-35.083 9.23c4.856 5.24 2.949 22.638 3.922 32.386.194 1.934-5.896 2.455-6.094.067-.955-11.509-8.014-35.25-8.014-35.25a4.446 4.446 0 0 1 2.193-4.894l.82-.451 34.912-19.212c4.789-2.635 10.424-1.566 13.078 3.189 2.653 4.755 1.32 11.395-3.468 14.03-.716.395-1.51.702-2.266.905"/>
            <path fill="#2B2F33" d="M473.98 134.127c-.51 1.54-.976 3.086-1.434 4.633-.462 1.546-.884 3.097-1.328 4.645l-1.245 4.655c-.5 1.92-.908 3.647-1.179 4.663-.392 1.554-.778 3.11-1.14 4.667-.375 1.556-.724 3.116-1.081 4.674-.707 3.118-1.96 6.612-2.402 8.705 5.36 14.976-3.376 28.222-5.841 38.316-3.15 1.49-5.65-1.244-5.65-1.244l.384-1.04c.228-.717.445-1.444.636-2.193.195-.748.36-1.508.505-2.282.156-.768.28-1.553.411-2.333.114-.788.215-1.577.302-2.374.096-.793.166-1.595.243-2.394.147-1.601.207-3.218.276-4.835.065-1.617.093-3.24.082-4.865.003-1.624-.046-3.252-.101-4.878a175.633 175.633 0 0 0-.258-4.877l-.19-2.43c-.07-.8-.143-1.63-.225-2.381l.033-.687c.106-3.189.196-6.38.248-9.575.022-1.598.052-3.196.056-4.796.017-1.599.01-3.2-.002-4.802-.016-1.603-.005-3.203-.042-4.808l-.107-4.815c-.065-1.609-.108-3.214-.19-4.825-.08-1.61-.166-3.221-.297-4.837-.443-5.486 3.676-10.29 9.2-10.73 5.524-.44 10.362 3.65 10.805 9.135a10.12 10.12 0 0 1-.47 3.908"/>
            <path fill="#FF9491" d="M444.335 80.933c0-.706-.577-1.28-1.288-1.28-.712 0-1.289.574-1.289 1.28 0 .707.577 1.28 1.289 1.28.711 0 1.288-.573 1.288-1.28"/>
            <path fill="#003E80" d="M449.732 129.3c4.581 6.596 24.155 11.126 24.745 1.582.34-5.514-3.633-9.153-9.896-10.032-5.923-.831-9.346.671-9.346.671s-9.196 2.463-5.503 7.78"/>
            <path fill="#FF9491" d="M400.386 119.586c-1.485.044-4.1-.396-4.5-.66v-6.304l3.458 3.135 1.042 3.83z"/>
            <path fill="#FFB7AA" d="M395.931 108.412l.049.47c0 .184.079.24.115.37.022.102.142.291.223.461.103.177.236.367.385.566.164.2.33.407.54.622.397.43.884.884 1.388 1.37a21.966 21.966 0 0 1 1.496 1.555c.233.287.463.556.66.861.1.149.201.288.291.435l.246.447c.165.28.275.579.376.84l.14.37.082.332.145.64a1.968 1.968 0 0 1-1.5 2.352 1.982 1.982 0 0 1-2.414-1.827l-.01-.22s-.004-.102.002-.289l.007-.156-.028-.191c-.02-.138-.027-.297-.091-.478l-.077-.286c-.034-.1-.082-.206-.124-.315-.076-.219-.206-.456-.329-.704-.27-.5-.609-1.04-.996-1.607-.378-.565-.788-1.15-1.149-1.76a11.042 11.042 0 0 1-.496-.912 7.725 7.725 0 0 1-.361-.912c-.078-.317-.168-.558-.189-.874-.024-.28-.06-.578-.029-.697l.053-.47a.801.801 0 0 1 .885-.704.8.8 0 0 1 .71.711"/>
            <path fill="#003E80" d="M458.924 117.126c-.52-1.55.277-6.684-.337-11.762l-9.307.42c1.119 1.98 3.32 8.597 10.788 12.863-.537-.452-.956-.96-1.144-1.521"/>
            <g transform="translate(440.64 111.906)">
                <ellipse cx="15.36" cy="15.303" fill="url(#g)" rx="15.36" ry="15.303"/>
                <path fill="#006FE6" d="M15.496 15.287v6.221l-6.34-3.11V12.55z"/>
                <path fill="url(#h)" d="M7 14a.778.778 0 0 1-.348-1.474l5.792-2.896V3.89a.778.778 0 0 1 1.556 0v6.222a.779.779 0 0 1-.43.696l-6.222 3.111A.78.78 0 0 1 7 14" transform="translate(8.448 8.417)"/>
                <path fill="url(#i)" d="M7 14a.78.78 0 0 1-.348-.082L.43 10.808A.779.779 0 0 1 0 10.11V3.89a.778.778 0 0 1 1.556 0V9.63l5.792 2.896A.779.779 0 0 1 6.999 14" transform="translate(8.448 8.417)"/>
                <path fill="url(#j)" d="M2.517 3.889L7 6.13l4.483-2.241L7 1.647 2.517 3.89zM7 7.778a.781.781 0 0 1-.348-.082L.43 4.585a.779.779 0 0 1 0-1.392L6.652.082a.78.78 0 0 1 .696 0l6.222 3.11a.779.779 0 0 1 0 1.393L7.348 7.696A.779.779 0 0 1 7 7.778z" transform="translate(8.448 8.417)"/>
                <path fill="#7FBCFF" d="M10.965 12.306l4.483 2.241 4.483-2.241-4.483-2.242z"/>
                <path fill="#006FE6" d="M15.448 10.064v4.483l4.483-2.241z"/>
            </g>
            <path fill="#FFB7AA" d="M443.407 135.59c3.095.417 4.815-.69 6.224-1.15 1.407-.46 5.69-.153 7.203-2.58 1.513-2.426 3.675 2.52 3.675 2.52s-3.439 8.156-5.644 8.528c-.647.11-1.474-.249-2.423-.293-.368-.017-.773.48-1.251.34-.626-.182-.64-.697-1.142-.814-.883-.206-1.41.64-2.268.149-.823-.469 1.081-5.058 1.081-5.058s-3.769.583-4.847-.01c-.688-.378-.608-1.631-.608-1.631"/>
            <path fill="#FFB7AA" d="M455.35 98.145l20.969 13.231.305.193a3.495 3.495 0 0 1 .715 5.328l-17.115 18.617a2.474 2.474 0 0 1-3.478.158 2.444 2.444 0 0 1-.31-3.271l15.22-20.175 1.019 5.52-22.183-11.107a4.875 4.875 0 0 1-2.18-6.569c1.225-2.411 4.186-3.38 6.615-2.164.145.073.29.155.424.24"/>
            <path fill="#2053AF" d="M455.35 98.145l20.969 13.231.305.193a3.495 3.495 0 0 1 .715 5.328l-5.566 6.055-5.787-3.212 2.926-3.878-18.42-9.223a4.875 4.875 0 0 1-2.18-6.569c1.225-2.411 4.186-3.38 6.615-2.164.145.073.29.155.424.24"/>
        </g>
        <g>
            <path fill="#2B2F33" d="M310.332 246.172l-44.734 9.142c-3.073.628-6.076-1.336-6.708-4.388-.561-2.706.934-5.358 3.423-6.362l42.305-17.087c5.054-2.041 10.818.372 12.873 5.39 2.055 5.02-.375 10.742-5.428 12.783-.553.223-1.168.402-1.731.522"/>
            <path fill="#FFB7AA" d="M298.43 253.114s2.66-.022 4.342.393c1.683.414.392-3.258.392-3.258l-3.166-2.464-2.404.099.836 5.23zM245.689 253.761c-1.794 1.595-2.716 2.725-3.834 3.84-.775.774 3.208 3.85 3.208 3.85l4.004-2.632.41-.73v-3.435l-3.788-.893z"/>
            <path fill="#FFF" d="M249.71 263.763s-.18 2.184-.52 2.376c-1.156.655-8.646.563-9.48.759-1.59.374-10.087.149-10.872-.841-.784-.991-.126-2.326-.126-2.326l20.998.032z"/>
            <path fill="#FC6627" d="M249.58 263.973c.516-.191-.108-4.748-.513-5.154-.404-.406-3.107 1.511-4.827.693-1.72-.819-2.63-2.382-3.017-2.484-.387-.102-5.352 4.846-5.352 4.846s-7.726 1.47-7.1 1.898c4.021 2.746 18.745.964 20.81.2"/>
            <path fill="#FFF" d="M241.347 260.46a.497.497 0 0 1-.33-.126l-1.84-1.657a.487.487 0 0 1-.034-.69.495.495 0 0 1 .695-.034l1.84 1.657a.486.486 0 0 1-.33.85M239.415 262.32a.496.496 0 0 1-.33-.126l-1.841-1.657a.486.486 0 0 1-.034-.69.495.495 0 0 1 .695-.034l1.84 1.657c.202.18.217.49.034.69a.491.491 0 0 1-.364.16"/>
            <path fill="#FFB7AA" d="M246.252 199.119c.697.548 7.173 4.74 15.124 4.048 7.952-.692.37-4.192.37-4.192l-15.494.144z"/>
            <path fill="#FF9491" d="M290.626 218.655l-.364.281a3.551 3.551 0 0 1-5.281-1.101l-12.555-23.096a2.436 2.436 0 0 1 .997-3.312 2.482 2.482 0 0 1 3.218.795l11.703 16.913 12.646-12.078a5.454 5.454 0 0 1 7.67-.232 5.362 5.362 0 0 1-.383 8.176l-17.651 13.654z"/>
            <g transform="translate(197.76 137.73)">
                <path fill="#FFF" stroke="#C2C7C8" stroke-dasharray="2,2,2,2" stroke-linecap="round" stroke-linejoin="round" d="M2 0h95.84a2 2 0 0 1 2 2v57.213a2 2 0 0 1-2 2H2a2 2 0 0 1-2-2V2a2 2 0 0 1 2-2z"/>
                <circle cx="15.36" cy="15.303" r="8" fill="#E2E6E8"/>
                <use fill="#676B6D" transform="translate(11.52 11.477)" xlink:href="#k"/>
                <rect width="38.4" height="3.826" x="30.72" y="13.39" fill="#E2E6E8" fill-rule="nonzero" rx="1.913"/>
                <rect width="84.48" height="3.826" x="7.68" y="30.607" fill="#E2E6E8" fill-rule="nonzero" rx="1.913"/>
                <rect width="84.48" height="3.826" x="7.68" y="38.258" fill="#E2E6E8" fill-rule="nonzero" rx="1.913"/>
                <rect width="38.4" height="3.826" x="7.68" y="45.91" fill="#E2E6E8" fill-rule="nonzero" rx="1.913"/>
            </g>
            <path fill="#003E80" d="M289.277 165.951c-9.852-3.434-6.276-21.05 9.166-12.994 10.984 5.731-9.166 12.994-9.166 12.994"/>
            <path fill="#003E80" d="M289.945 167.024a.49.49 0 0 1-.184-.035c-5.061-2.03-8.082-5.297-8.288-8.962-.158-2.804 1.405-5.437 4.078-6.872 3.756-2.016 8.684-1.251 13.184 2.045.218.16.265.466.103.683a.494.494 0 0 1-.687.103c-4.185-3.065-8.721-3.803-12.132-1.972-2.335 1.253-3.7 3.536-3.565 5.959.185 3.271 2.982 6.228 7.675 8.11a.487.487 0 0 1-.184.941"/>
            <path fill="#FFB7AA" d="M294.23 178.6c.45 2.903-.296 8.356-.431 9.03-.136.673 9.289-1.886 9.289-1.886s-3.894-6.398-3.424-8.836c.47-2.438-5.434 1.692-5.434 1.692"/>
            <path fill="#FF9491" d="M299.626 177.437c-.004-.191.007-.37.038-.529.47-2.438-5.435 1.692-5.435 1.692.304 1.951.066 5.053-.163 7.082 1.317-5.364 4.998-7.751 5.56-8.245"/>
            <path fill="#484C4F" d="M263.733 255.447c8.95.782 32.874-2.828 34.697-2.333 1.487-2.698-.82-5.115-.82-5.115s-3.566.305-5.756-.297c-1.107-.304-11.057-2.603-15.816-2.686-4.96-.086-17.367-.7-18.227 3.777-.844 4.388 1.796 6.294 5.922 6.654"/>
            <path fill="#676B6D" d="M260.118 249.94l-2.412-.44c-.436 3.886 2.13 5.606 6.027 5.947 4.436.388 12.552-.304 19.83-1.04-12.853.806-20.055-.646-23.445-4.468"/>
            <path fill="#2B2F33" d="M304.541 250.31l-29.533-15.42c.337 7.249-17.868 15.715-25.013 22.676-.18.175-.353.35-.518.522-.376-2.112-2.692-3.638-3.789-4.327a2.92 2.92 0 0 1 .612-.593l.17-.122c.503-.364 1.04-.77 1.584-1.254a21.9 21.9 0 0 0 .815-.73c.272-.245.542-.504.813-.768a59.94 59.94 0 0 0 1.61-1.612c.535-.548 1.062-1.113 1.589-1.678 2.1-2.278 4.147-4.652 6.16-7.062a351.346 351.346 0 0 0 5.943-7.34l2.907-3.728 1.437-1.874 1.41-1.867a3.9 3.9 0 0 1 4.232-1.768l1.347.322 35.356 8.416c5.333 1.27 8.62 6.591 7.34 11.886-1.277 5.295-6.636 8.558-11.969 7.289-.88-.21-1.745-.555-2.503-.967"/>
            <path fill="#006FE6" d="M292.159 186.398l10.928-3.555s8.239 7.137 9.23 11.044c.992 3.907-1.468 17.664.746 22.549 2.213 4.884 17.543 35.187-7.132 36.508 0-19.82-3.474-23.2-15.035-25.787 1.424-2.212 2.298-5.204 1.852-9.232-1.45-13.09-6.685-14.703-5.284-20.564 1.006-4.207 5.023-5.753 4.695-10.963"/>
            <path fill="#FFB7AA" d="M294.02 157.013c2.334-.753 14.797-.219 13.22 12.119-1.157 9.057-17.102 10.385-19.12 9.897-2.016-.489-2.186-3.872-2.186-3.872.678-.707.648-.685.648-.685s-1.004-.813-1.123-1.89l.882-.505s-1.195-1.91-.712-3.231c0 0 3.119.336 3.627-.505.509-.842-1.762-9.224 4.763-11.328"/>
            <path fill="#FF9491" d="M294.02 157.013c-1.157.373-2.033.946-2.701 1.636 0 .96.186 6.73 6.412 7.234 5.258.426 1.653-6.681.39-8.925-1.835-.274-3.412-.168-4.102.055"/>
            <path fill="#003E80" d="M293.514 157.196c-1.122 6.987 4.217 8.687 4.217 8.687s-5.356 5.528 3.526 13.233l3.289-1.874s8.052-5.043 7.424-11.948c-.814-8.937-8.882-10.385-13.527-12.338-1.865-.783-4.929 4.24-4.929 4.24"/>
            <path fill="#FFB7AA" d="M301.867 172.885a2.838 2.838 0 0 0-2.847-2.827 2.838 2.838 0 0 0-2.848 2.827 2.838 2.838 0 0 0 2.848 2.828 2.837 2.837 0 0 0 2.847-2.828"/>
            <path fill="#FF9491" d="M300.308 172.885c0-.707-.577-1.28-1.288-1.28-.712 0-1.289.573-1.289 1.28 0 .707.577 1.28 1.289 1.28.71 0 1.288-.573 1.288-1.28"/>
            <path fill="#003E80" d="M312.317 182.843c0-3.938-3.44-7.13-7.683-7.13-4.244 0-7.684 3.192-7.684 7.13 0 3.939 3.44 7.131 7.684 7.131 4.243 0 7.683-3.192 7.683-7.13M289.772 206.525c1.15 2.593 2.25 6.046 2.976 11.4.292 2.154-.168 5.015-.165 5.013 8.36-4.802 15.151-23.027 15.67-24.805l-18.481 8.392z"/>
            <path fill="#FFB7AA" d="M289.937 214.38l-.353.301a3.437 3.437 0 0 1-3.726.477l-23.777-11.54a2.437 2.437 0 0 1-1.13-3.27c.561-1.141 1.909-1.65 3.082-1.213l21.37 8.324 13.85-15.185c1.944-2.265 5.37-2.535 7.65-.604a5.362 5.362 0 0 1 .02 8.183l-16.986 14.527z"/>
            <path fill="#FFB7AA" d="M261.393 201.14l-1.084-.811a15.7 15.7 0 0 1-1.164-.97c-.21-.184-.413-.4-.621-.609-.199-.227-.41-.442-.592-.69a7.71 7.71 0 0 1-.53-.748c-.173-.246-.3-.525-.44-.774-.12-.265-.234-.52-.325-.768-.079-.254-.16-.49-.216-.713l-.121-.613c-.034-.182-.036-.344-.05-.476l-.034-.412a.735.735 0 1 1 1.443-.244l.025.093.084.318c.03.1.05.226.102.361l.173.45c.072.16.168.326.255.504.102.173.222.348.341.529.144.168.264.355.43.519.155.17.32.338.5.493.166.164.367.304.545.452.196.136.378.276.575.396.38.25.763.456 1.099.633l1.212.622a1.467 1.467 0 0 1 .637 1.983 1.487 1.487 0 0 1-2.204.505l-.04-.03z"/>
            <path fill="#006FE6" d="M306.923 199.853l-10.565 9.035-5.834-6.45 8.729-10.164c1.944-2.265 5.37-2.535 7.65-.604a5.362 5.362 0 0 1 .02 8.183"/>
            <path fill="#003E80" d="M296.358 209.376a.492.492 0 0 1-.365-.162l-6.122-6.767 9.007-10.49a.493.493 0 0 1 .693-.054.485.485 0 0 1 .055.687l-8.449 9.84 5.547 6.131a.486.486 0 0 1-.366.815M306.272 190.535c-1.572 0-3.216-.39-4.822-1.174a.487.487 0 0 1-.223-.655.495.495 0 0 1 .658-.223c3.271 1.601 6.559 1.434 9.022-.455 2.125-1.63 3.162-4.305 2.643-6.815-.41-1.976-2.128-5.557-9.04-7.326a.489.489 0 1 1 .246-.947c7.43 1.903 9.302 5.877 9.758 8.077.594 2.872-.585 5.927-3.005 7.784-1.502 1.152-3.316 1.734-5.237 1.734"/>
            <path fill="#FFF" d="M299.53 244.253s1.336-1.743 1.728-1.723c1.329.068 7.587 4.157 8.396 4.439 1.54.536 8.575 5.276 8.697 6.53.123 1.254-1.157 2.026-1.157 2.026l-17.664-11.272z"/>
            <path fill="#FC6627" d="M299.752 244.146c-.377-.082-1.388 1.797-1.953 3.208-.24.6-.9.05-.9.52 0 1.041 3.924 1.277 4.928 2.888 1.004 1.61.921 3.414 1.191 3.707.27.293 7.139-1.214 7.139-1.214s7.304 2.9 7.01 2.204c-1.895-4.466-15.261-10.85-17.415-11.313"/>
            <path fill="#FFF" d="M305.161 254.793a.491.491 0 0 1-.474-.36l-.65-2.382a.487.487 0 0 1 .346-.599.49.49 0 0 1 .603.344l.65 2.38a.488.488 0 0 1-.475.617M307.8 254.262a.492.492 0 0 1-.475-.36l-.65-2.382a.488.488 0 0 1 .346-.6.49.49 0 0 1 .604.344l.649 2.381a.488.488 0 0 1-.475.617"/>
        </g>
        <g>
            <path fill="#4DA3FF" d="M397.44 252.505h67.2v-32.52h-67.2z"/>
            <path fill="#006FE6" d="M407.04 223.811h38.4v-29.65h-38.4z"/>
            <path fill="#006FE6" d="M406.08 198.943h41.28v-4.782h-41.28z"/>
            <path fill="#4DA3FF" d="M395.52 225.724h72v-5.739h-72zM407.04 199.9h38.4v-.957h-38.4z"/>
            <path fill="#006FE6" d="M397.44 226.68h67.2v-.956h-67.2z"/>
        </g>
        <g>
            <path fill="#FFB7AA" d="M35.76 249.3v-9.849c0-2.023 1.653-3.663 3.69-3.663s3.689 1.64 3.689 3.663v9.85c0 2.023-7.378 2.023-7.378 0M50.292 248.438l2.542-10.42c.48-1.966 2.47-3.173 4.454-2.697 1.98.476 3.196 2.456 2.716 4.423l-2.54 10.42c-.41 1.676-7.651.241-7.172-1.726"/>
            <path fill="#E2E6E8" d="M49.321 249.707s.239 2.587.585 2.77c1.174.623 8.659.328 9.498.502 1.599.331 10.087-.123 10.844-1.135.757-1.011.062-2.328.062-2.328l-20.989.191z"/>
            <path fill="#FFF" d="M49.471 249.967c-.52-.176.038-4.554.43-4.97.394-.417 3.074 1.586 4.772.722 1.696-.865 2.564-2.452 2.947-2.565.384-.112 5.483 4.699 5.483 4.699s7.764 1.26 7.15 1.705c-3.945 2.854-18.697 1.116-20.782.41"/>
            <path fill="#E2E6E8" d="M57.973 247.104a.491.491 0 0 1-.355-.15.486.486 0 0 1 .015-.691l1.794-1.706a.494.494 0 0 1 .695.015.486.486 0 0 1-.015.69l-1.794 1.706a.492.492 0 0 1-.34.136M59.56 248.396a.491.491 0 0 1-.356-.151.486.486 0 0 1 .015-.69l1.795-1.707a.495.495 0 0 1 .695.015.487.487 0 0 1-.015.691L59.9 248.26a.493.493 0 0 1-.34.136"/>
            <g transform="translate(55.68 55.475)">
                <path fill="#2B2F33" d="M4.88 2.87h95.84a2 2 0 0 1 2 2v57.213a2 2 0 0 1-2 2H4.88a2 2 0 0 1-2-2V4.869a2 2 0 0 1 2-2z" opacity=".247"/>
                <path fill="#FFF" d="M2 0h95.84a2 2 0 0 1 2 2v57.213a2 2 0 0 1-2 2H2a2 2 0 0 1-2-2V2a2 2 0 0 1 2-2z"/>
                <circle cx="15.36" cy="13.08" r="8" fill="#E2E6E8"/>
                <use fill="#676B6D" transform="translate(11.52 9.565)" xlink:href="#l"/>
                <g fill="#E2E6E8" transform="translate(90.24 8.608)">
                    <circle cx="1" cy="1" r="1"/>
                    <circle cx="1" cy="5" r="1"/>
                    <circle cx="1" cy="9" r="1"/>
                </g>
                <rect width="23.04" height="3.826" x="30.72" y="11.477" fill="#E2E6E8" fill-rule="nonzero" rx="1.913"/>
                <rect width="84.48" height="3.826" x="7.68" y="26.781" fill="#E2E6E8" fill-rule="nonzero" rx="1.913"/>
                <rect width="84.48" height="15.303" x="7.68" y="38.258" fill="#006FE6" fill-rule="nonzero" rx="2"/>
            </g>
            <path fill="#003E80" d="M34.841 241.327c-.19-6.55-.727-24.957-.84-26.76-.181-1.957-1.158-42.983-1.158-42.983-.426-5.44 3.668-10.191 9.146-10.615 5.477-.423 10.263 3.643 10.69 9.082.077.992-.008 2.005-.212 2.93 0 0-.25 1.1-.644 3.03-.193.966-.44 2.138-.693 3.483-.256 1.347-.558 2.864-.85 4.522-.296 1.657-.637 3.452-.951 5.353-.317 1.901-.678 3.903-1.002 5.979l-1.014 6.398-.978 6.61-.24 1.661-.057.416-.03.207.01-.19-.003.026-.006.051-.01.104-.085.833-.085.83-.042.415-.021.207-.006.052.003-.185-.002.025-.007.105-.103 1.653c-.138 2.198-.248 4.361-.35 6.454l-.156 3.083-.114 2.952a287.595 287.595 0 0 0-.18 5.407 238.36 238.36 0 0 0-.095 4.57c-.025 1.36-.03 2.546-.03 3.523-.007 1.954-9.843 2.204-9.885.772"/>
            <path fill="#102A59" d="M45.76 212.809l.003-.027c-.002.086.004-.227-.002.185l.005-.051.021-.207.042-.414.085-.831.085-.833.01-.104.006-.052.003-.025c.003-.056-.021.392-.009.19l.029-.207.057-.416.24-1.66.978-6.61 1.014-6.399c.323-2.075.685-4.078 1.002-5.98.313-1.9.655-3.695.95-5.352l.155-.856-3.258-2.798c-2.234 3.899-2.537 24.461-1.525 34.205l.103-1.655.007-.103z"/>
            <path fill="#003E80" d="M67.641 204.78l.034.438.017.22.052 2.295v.334l-.02.299c-.074.787-.107 1.575-.244 2.349l-.214 1.156s-5.248 22.836-7.052 30.729c-.36 1.57-9.075-.282-8.912-1.295.34-2.023 4.253-31.22 4.253-31.22l.021-.583c.019-.387-.05-.777-.054-1.158a62.135 62.135 0 0 0-.153-.912l-10.55-33.922c-1.823-5.137.893-10.769 6.066-12.579 5.173-1.81 10.845.887 12.668 6.024.307.863 4.088 37.825 4.088 37.825"/>
            <path fill="#FFB7AA" d="M55.949 83.889l-12.312 16.395 1.3-2.947.654 23.272c.115 4.067-3.113 7.456-7.209 7.57-4.095.113-7.508-3.091-7.622-7.158a7.732 7.732 0 0 1 .12-1.541l4.249-22.896.189-1.016a3.352 3.352 0 0 1 1.11-1.932l15.557-13.403a2.734 2.734 0 0 1 3.838.27 2.69 2.69 0 0 1 .126 3.386"/>
            <path fill="#006FE6" d="M45.028 100.577l.564 20.032c.114 4.067-3.113 7.456-7.21 7.57-4.095.113-7.508-3.091-7.622-7.158a7.701 7.701 0 0 1 .12-1.541l3.732-20.107 10.416 1.204z"/>
            <path fill="#FFB7AA" d="M41.192 106.909s.183 3.032-.575 4.477c-.757 1.445 10.82 1.953 10.82 1.953s-.428-1.414-.141-2.915c.286-1.5-5.195-5.693-5.195-5.693l-4.91 2.178z"/>
            <path fill="#4DA3FF" d="M41.469 110.351c6.947-.977 9.362 2.968 11.237 3.945 1.875.977 7.163.732 8.638 2.198 1.476 1.465 2.213 36.671-1.106 41.515-1.683 2.456-22.814 4.374-24.64 0-3.69-8.831-7.092-39.48-4.008-40.416 7.014-2.13 7.72-6.939 9.879-7.242"/>
            <path fill="#FF9491" d="M51.387 113.337l.05.002s-.429-1.415-.141-2.915c.128-.674-.907-1.89-2.085-3.026l-3.472-.758c.64.59 1.935 3.834 5.648 6.697"/>
            <path fill="#FFB7AA" d="M84.697 127.719l16.861-8.943a2.73 2.73 0 0 1 3.697 1.053 2.69 2.69 0 0 1-.604 3.356L88.216 137.23a4.026 4.026 0 0 1-3.82.78l-.897-.285-26.12-8.249c-3.898-1.231-6.053-5.368-4.813-9.24 1.24-3.87 5.406-6.01 9.304-4.78.418.132.85.318 1.226.512l21.601 11.752zM44.04 104.65c2.08 3.19 8.551 7.579 11.313 6.227 2.91-1.424 3.648-19.578-3.525-19.577-5.453 0-11.845 7.123-7.787 13.35"/>
            <path fill="#102A59" d="M41.192 106.909s6.824 1.078 9.57-4.01c2.333-4.32 3.205-7.081 5.487-7.779 2.922-.892 3.643-2.803 2.352-4.512-1.29-1.71-4.252-.427-5.973-.855-1.722-.427-5.674-3.128-10.76-.366-7.87 4.273-1.311 12.984-.676 17.522"/>
            <path fill="#FFB7AA" d="M52.402 101.882a2.573 2.573 0 0 0-2.582-2.564 2.573 2.573 0 0 0-2.582 2.564 2.573 2.573 0 0 0 2.582 2.564 2.573 2.573 0 0 0 2.582-2.564"/>
            <path fill="#FF9491" d="M51.295 101.882c0-.81-.66-1.465-1.475-1.465a1.47 1.47 0 0 0-1.475 1.465c0 .81.66 1.465 1.475 1.465a1.47 1.47 0 0 0 1.475-1.465"/>
            <path fill="#003E80" d="M32.812 169.73s1.064-8.263 2.785-11.721h24.64s2.949 6.203 3.316 8.946c.367 2.742-30.74 2.775-30.74 2.775"/>
            <path fill="#102A59" d="M51.303 241.793a.488.488 0 0 1-.485-.568c.334-1.992 4.21-30.912 4.25-31.204l.017-.536c.01-.199-.007-.403-.025-.618a7.498 7.498 0 0 1-.03-.517c-.01-.049-.115-.658-.14-.804l-10.541-33.892a.488.488 0 0 1 .325-.61.494.494 0 0 1 .615.322l10.55 33.922a.47.47 0 0 1 .014.061c.155.892.158.934.16.965.003.172.016.323.028.474.019.237.038.482.026.738l-.02.577c-.165 1.24-3.923 29.274-4.26 31.282a.49.49 0 0 1-.484.408"/>
            <path fill="#102A59" d="M58.222 199.28a.492.492 0 0 1-.214-.05c-4.387-2.112-7.584-7.01-8.988-10.562a.492.492 0 0 1 .916-.357c1.339 3.389 4.37 8.051 8.5 10.04a.487.487 0 0 1-.214.928M56.915 244.299l-.054-.003a.49.49 0 0 1-.436-.538c.494-4.532 3.292-11.698 5.999-18.626 2.686-6.877 5.223-13.372 4.836-15.717a.488.488 0 0 1 .405-.56.487.487 0 0 1 .565.402c.431 2.608-2.034 8.92-4.889 16.227-2.684 6.87-5.458 13.975-5.938 18.38a.49.49 0 0 1-.488.435"/>
            <path fill="#2053AF" d="M39.35 243.81c-1.713 0-3.347-.32-4.694-.838-.147-.056-.59-3.325-.046-3.423a1.725 1.725 0 0 1 1 .117c1.51.659 5.171 1.415 8.22-.443.404-.246.944-.466 1.296-.207.438.321.214 3.293.068 3.373-1.846 1.007-3.896 1.421-5.843 1.421M56.024 244.578c1.71.104 3.361-.115 4.738-.549.15-.048.795-3.284.259-3.415a1.73 1.73 0 0 0-1.005.056c-1.549.565-5.25 1.095-8.177-.945-.389-.27-.914-.523-1.282-.286-.457.294-.418 3.273-.277 3.362 1.78 1.119 3.8 1.657 5.744 1.777"/>
            <path fill="#006FE6" d="M62.249 146.734c.435-6.715.422-14.989.15-21.193l-10.134-2.244c.813 2.61 3.353 16.111 9.984 23.437"/>
            <path fill="#4DA3FF" d="M63.096 115.967l18.982 9.673-3.492 10.533-21.206-6.698c-3.899-1.231-6.054-5.368-4.814-9.24 1.24-3.87 5.406-6.01 9.304-4.78.418.132.85.318 1.226.512"/>
            <path fill="#102A59" d="M60.805 92.073c0-2.636-2.152-4.772-4.807-4.772-2.654 0-4.806 2.136-4.806 4.772s2.152 4.773 4.806 4.773c2.655 0 4.807-2.137 4.807-4.773"/>
            <path fill="#102A59" d="M47.9 88.607a2.87 2.87 0 0 1 2.88-2.86 2.87 2.87 0 0 1 2.88 2.86 2.87 2.87 0 0 1-2.88 2.86 2.87 2.87 0 0 1-2.88-2.86"/>
            <path fill="#102A59" d="M56.749 98.281c-1.056 0-2.299-.186-3.752-.66a.488.488 0 1 1 .306-.927c2.837.923 5.192.796 6.808-.366 1.28-.922 2.046-2.513 2.046-4.255 0-1.642-1.042-3.307-2.595-4.143-1.778-.957-3.925-.73-6.044.64a.495.495 0 0 1-.681-.144.487.487 0 0 1 .144-.676c3.288-2.124 5.828-1.336 7.05-.678 1.86 1.001 3.11 3.012 3.11 5.001 0 2.054-.917 3.94-2.453 5.046-.833.6-2.104 1.162-3.94 1.162"/>
            <path fill="#FFB7AA" d="M57.412 101.214l.974 2.133s-.082 1.14-1.311 1.1c-1.23-.041.337-3.233.337-3.233M110.338 111.322l-.015.113c-.012.077-.018.167-.062.353l-.065.287-.082.295c-.056.215-.139.438-.224.69a14.001 14.001 0 0 1-.732 1.63c-.162.283-.319.584-.509.87a14.524 14.524 0 0 1-1.921 2.437c-.237.23-.456.467-.69.662-.233.198-.442.4-.657.559-.212.163-.406.313-.58.445l-.465.318-.41.274a1.737 1.737 0 0 1-2.4-.465 1.709 1.709 0 0 1 .674-2.5l.083-.04.346-.166.4-.192.5-.28c.189-.098.371-.235.578-.363.21-.125.406-.288.623-.443a11.616 11.616 0 0 0 1.835-1.735c.192-.21.352-.437.52-.649.317-.436.586-.863.791-1.237.095-.188.192-.361.256-.514l.096-.215.062-.154c.04-.08.07-.204.091-.272l.032-.11.002-.005a.987.987 0 0 1 1.923.407"/>
            <path fill="#FFB7AA" d="M105.01 122.721c1.271.285 7.87-.092 10.268-6.39h-7.542l-3.566 3.256.84 3.134zM62.857 70.324l-.02.094c-.012.06-.027.146-.068.29-.037.143-.083.304-.13.463l-.173.553c-.258.801-.648 1.84-1.126 2.872-.236.517-.507 1.03-.782 1.512-.152.24-.283.473-.44.694-.161.22-.292.43-.464.623-.164.193-.301.37-.477.528-.173.158-.286.292-.452.403-.304.222-.488.339-.488.339a1.725 1.725 0 0 1-2.373-.517 1.698 1.698 0 0 1 .52-2.356c.01-.006.019-.01.028-.017l.243-.146s.043-.027.135-.055c.043 0 .125-.077.208-.12.084-.041.191-.142.307-.235.118-.084.243-.228.38-.356.138-.133.275-.303.423-.463.287-.347.59-.735.874-1.151a23.92 23.92 0 0 0 1.455-2.394l.236-.46.16-.326c.04-.074.075-.166.098-.225l.035-.09.005-.012a.99.99 0 0 1 1.278-.557.98.98 0 0 1 .608 1.109"/>
            <path fill="#FFB7AA" d="M55.722 65.618s-2.008.692-2.254 2.97c-.246 2.28.192 8.914-.861 11.234l3.566 3.602c.68-.977 3.071-4.694 3.53-6.044 1.84-5.413-2.257-1.994-4.022-4.68l.041-7.082z"/>
            <path fill="#2053AF" d="M56.666 156.747c-2.678-4.144-6.123-11.738-4.881-17.442a.492.492 0 0 1 .961.207c-1.405 6.455 3.857 16.2 6.411 18.938a.486.486 0 0 1-.026.69.494.494 0 0 1-.696-.027 7.8 7.8 0 0 1-.086-.094.498.498 0 0 1-.34-.063c-4.301-2.572-6.612-7.663-7.057-10.268a.489.489 0 0 1 .402-.563.49.49 0 0 1 .567.4c.348 2.03 1.906 5.674 4.745 8.222zm21.92-20.085a.488.488 0 0 1-.467-.641l3.36-10.137L62.87 116.4a7.539 7.539 0 0 0-1.15-.48c-3.633-1.147-7.53.854-8.686 4.463a.494.494 0 0 1-.618.318.489.489 0 0 1-.32-.614c1.32-4.122 5.771-6.408 9.923-5.098.42.133.883.326 1.303.544l18.979 9.671c.216.11.318.36.242.588l-3.49 10.532a.491.491 0 0 1-.468.337z"/>
            <path fill="#102A59" d="M61.299 160.367c-.59-1.366-1.061-2.358-1.061-2.358h-24.64c-.323.647-.622 1.461-.895 2.358h26.596z"/>
            <path fill="#FFF" d="M43.549 250.115c0-2.248-1.836-4.07-4.1-4.07-2.263 0-4.098 1.822-4.098 4.07 0 2.247 8.198 2.247 8.198 0"/>
            <path fill="#E2E6E8" d="M43.97 249.134c.294.709.116 1.455-.4 1.666-.515.211-1.172-.193-1.467-.901-.294-.71-.115-1.455.4-1.667.515-.211 1.172.192 1.466.902M34.951 249.134c-.295.709-.116 1.455.4 1.666.515.211 1.171-.193 1.466-.901.295-.71.116-1.455-.4-1.667-.515-.211-1.171.192-1.466.902"/>
            <path fill="#E2E6E8" d="M43.754 252.898h-8.239a1.47 1.47 0 0 1-1.476-1.466c0-.809.661-1.464 1.476-1.464h8.239a1.47 1.47 0 0 1 1.475 1.464 1.47 1.47 0 0 1-1.475 1.466"/>
        </g>
    </g>
</svg>
