<svg xmlns="http://www.w3.org/2000/svg" width="64" height="64" viewBox="0 0 64 64">
    <g fill="#E2E6E8" fill-rule="evenodd">
        <path d="M53.333 58.667H10.667c-2.934 0-5.334-2.4-5.334-5.334v-9.456l18.912-16.549 34.422 22.128v3.877c0 2.934-2.4 5.334-5.334 5.334M10.667 5.333h42.666c2.934 0 5.334 2.4 5.334 5.334v32.448L25.443 21.757a2.66 2.66 0 0 0-3.2.238L5.333 36.789V10.667c0-2.934 2.4-5.334 5.334-5.334M53.333 0H10.667C4.784 0 0 4.784 0 10.667v42.666C0 59.216 4.784 64 10.667 64h42.666C59.216 64 64 59.216 64 53.333V10.667C64 4.784 59.216 0 53.333 0"/>
        <path d="M45.333 16A2.671 2.671 0 0 1 48 18.667a2.671 2.671 0 0 1-2.667 2.666 2.671 2.671 0 0 1-2.666-2.666A2.671 2.671 0 0 1 45.333 16m0 10.667c4.411 0 8-3.59 8-8 0-4.411-3.589-8-8-8-4.41 0-8 3.589-8 8 0 4.41 3.59 8 8 8"/>
    </g>
</svg>
