<svg xmlns="http://www.w3.org/2000/svg" xmlns:xlink="http://www.w3.org/1999/xlink" width="52" height="40" viewBox="0 0 52 40">
    <defs>
        <circle id="a" cx="40" cy="20" r="8"/>
        <rect id="b" width="40" height="40" rx="20"/>
    </defs>
    <g fill="none" fill-rule="evenodd">
        <g>
            <use fill="#676B6D" xlink:href="#a"/>
            <circle cx="40" cy="20" r="10" stroke="#C2C7C8" stroke-width="4"/>
        </g>
        <g>
            <use fill="#FFF" xlink:href="#b"/>
            <rect width="38" height="38" x="1" y="1" stroke="#676B6D" stroke-width="2" rx="19"/>
        </g>
    </g>
</svg>
